
./octez-client --protocol PtLimaPtLMwfNinJi9rCfDPWea8dFgTZ1MeJ9f1m2SRic6ayiwW --mode mockup --no-base-dir-warnings typecheck script michelson_test_scripts/mini_scenarios/sc_rollup_forward.tz --details
Well typed
Gas remaining: 1039994.394 units remaining
{ parameter (pair bytes (contract bytes)) ;
  storage unit ;
  code { UNPAIR
         /* [ pair bytes (contract bytes) : unit ] */ ;
         DIP { NIL operation /* [ list operation : unit ] */ }
         /* [ pair bytes (contract bytes) : list operation : unit ] */ ;
         UNPAIR
         /* [ bytes : contract bytes : list operation : unit ] */ ;
         DIP { PUSH mutez 0 /* [ mutez : contract bytes : list operation : unit ] */ }
         /* [ bytes : mutez : contract bytes : list operation : unit ] */ ;
         TRANSFER_TOKENS
         /* [ operation : list operation : unit ] */ ;
         CONS
         /* [ list operation : unit ] */ ;
         PAIR
         /* [ pair (list operation) unit ] */ } }
