
./octez-client --protocol PtNairobi9MxcBmKF7avFwkUohUu9KuxHt3w9cBmJ7ULqPD7cY5 --mode mockup --no-base-dir-warnings typecheck script michelson_test_scripts/opcodes/utxo_read.tz --details
Well typed
Gas remaining: 1039985.390 units remaining
{ parameter (pair (ticket nat) nat) ;
  storage address ;
  code { CAR
         /* [ pair (ticket nat) nat ] */ ;
         UNPAIR
         /* [ ticket nat : nat ] */ ;
         READ_TICKET
         /* [ pair address nat nat : ticket nat : nat ] */ ;
         DIP { DROP /* [ nat ] */ }
         /* [ pair address nat nat : nat ] */ ;
         UNPAIR
         /* [ address : pair nat nat : nat ] */ ;
         DIP { UNPAIR /* [ nat : nat : nat ] */ }
         /* [ address : nat : nat : nat ] */ ;
         DIIP { ASSERT_CMPEQ }
         /* [ address : nat ] */ ;
         DIP { PUSH nat 42 /* [ nat : nat ] */ ; ASSERT_CMPEQ }
         /* [ address ] */ ;
         NIL operation
         /* [ list operation : address ] */ ;
         PAIR
         /* [ pair (list operation) address ] */ } }
