
./octez-client --protocol PtNairobi9MxcBmKF7avFwkUohUu9KuxHt3w9cBmJ7ULqPD7cY5 --mode mockup --no-base-dir-warnings typecheck script michelson_test_scripts/opcodes/get_and_update_big_map.tz --details
Well typed
Gas remaining: 1039994.790 units remaining
{ parameter string ;
  storage (pair (option nat) (big_map string nat)) ;
  code { UNPAPAIR ;
         GET_AND_UPDATE
         /* [ option nat : big_map string nat ] */ ;
         PAIR
         /* [ pair (option nat) (big_map string nat) ] */ ;
         NIL operation
         /* [ list operation : pair (option nat) (big_map string nat) ] */ ;
         PAIR
         /* [ pair (list operation) (option nat) (big_map string nat) ] */ } }
