
./octez-client --protocol PtNairobi9MxcBmKF7avFwkUohUu9KuxHt3w9cBmJ7ULqPD7cY5 --mode mockup --no-base-dir-warnings typecheck script michelson_test_scripts/mini_scenarios/tickets_send_with_tez_016.tz --details
Well typed
Gas remaining: 1039987.976 units remaining
{ parameter address ;
  storage unit ;
  code { CAR
         /* [ address ] */ ;
         CONTRACT (ticket string)
         /* [ option (contract (ticket string)) ] */ ;
         IF_NONE
           { PUSH string "Contract not found" /* [ string ] */ ; FAILWITH /* [] */ }
           { PUSH mutez 1
             /* [ mutez : contract (ticket string) ] */ ;
             PUSH nat 1
             /* [ nat : mutez : contract (ticket string) ] */ ;
             PUSH string "Ticket"
             /* [ string : nat : mutez : contract (ticket string) ] */ ;
             TICKET
             /* [ option (ticket string) : mutez : contract (ticket string) ] */ ;
             ASSERT_SOME ;
             TRANSFER_TOKENS
             /* [ operation ] */ ;
             PUSH unit Unit
             /* [ unit : operation ] */ ;
             NIL operation
             /* [ list operation : unit : operation ] */ ;
             DIG 2
             /* [ operation : list operation : unit ] */ ;
             CONS
             /* [ list operation : unit ] */ ;
             PAIR
             /* [ pair (list operation) unit ] */ } } }
