
./octez-client --protocol PtNairobi9MxcBmKF7avFwkUohUu9KuxHt3w9cBmJ7ULqPD7cY5 --mode mockup --no-base-dir-warnings typecheck script michelson_test_scripts/opcodes/dropn.tz --details
Well typed
Gas remaining: 1039994.587 units remaining
{ parameter (pair (pair (pair (pair nat nat) nat) nat) nat) ;
  storage nat ;
  code { CAR
         /* [ pair (pair (pair (pair nat nat) nat) nat) nat ] */ ;
         UNPAIR
         /* [ pair (pair (pair nat nat) nat) nat : nat ] */ ;
         UNPAIR
         /* [ pair (pair nat nat) nat : nat : nat ] */ ;
         UNPAIR
         /* [ pair nat nat : nat : nat : nat ] */ ;
         UNPAIR
         /* [ nat : nat : nat : nat : nat ] */ ;
         DROP 4
         /* [ nat ] */ ;
         NIL operation
         /* [ list operation : nat ] */ ;
         PAIR
         /* [ pair (list operation) nat ] */ } }
