
./octez-client --protocol PtNairobi9MxcBmKF7avFwkUohUu9KuxHt3w9cBmJ7ULqPD7cY5 --mode mockup --no-base-dir-warnings typecheck script michelson_test_scripts/macros/assert_eq.tz --details
Well typed
Gas remaining: 1039991.843 units remaining
{ parameter (pair int int) ;
  storage unit ;
  code { CAR
         /* [ pair int int ] */ ;
         DUP
         /* [ pair int int : pair int int ] */ ;
         CAR
         /* [ int : pair int int ] */ ;
         DIP { CDR /* [ int ] */ }
         /* [ int : int ] */ ;
         COMPARE
         /* [ int ] */ ;
         ASSERT_EQ ;
         UNIT
         /* [ unit ] */ ;
         NIL operation
         /* [ list operation : unit ] */ ;
         PAIR
         /* [ pair (list operation) unit ] */ } }
