
./octez-client --protocol PtNairobi9MxcBmKF7avFwkUohUu9KuxHt3w9cBmJ7ULqPD7cY5 --mode mockup --no-base-dir-warnings typecheck script michelson_test_scripts/opcodes/first.tz --details
Well typed
Gas remaining: 1039995.098 units remaining
{ parameter (list nat) ;
  storage nat ;
  code { CAR
         /* [ list nat ] */ ;
         IF_CONS { DIP { DROP /* [] */ } /* [ nat ] */ } { FAIL } ;
         NIL operation
         /* [ list operation : nat ] */ ;
         PAIR
         /* [ pair (list operation) nat ] */ } }
