
./octez-client --protocol PtNairobi9MxcBmKF7avFwkUohUu9KuxHt3w9cBmJ7ULqPD7cY5 --mode mockup --no-base-dir-warnings typecheck script michelson_test_scripts/opcodes/set_member.tz --details
Well typed
Gas remaining: 1039989.840 units remaining
{ parameter string ;
  storage (pair (set string) (option bool)) ;
  code { DUP
         /* [ pair string (set string) (option bool)
            : pair string (set string) (option bool) ] */ ;
         DUP
         /* [ pair string (set string) (option bool)
            : pair string (set string) (option bool)
            : pair string (set string) (option bool) ] */ ;
         CAR
         /* [ string : pair string (set string) (option bool)
            : pair string (set string) (option bool) ] */ ;
         DIP { CDAR }
         /* [ string : set string : pair string (set string) (option bool) ] */ ;
         MEM
         /* [ bool : pair string (set string) (option bool) ] */ ;
         SOME
         /* [ option bool : pair string (set string) (option bool) ] */ ;
         DIP { CDAR }
         /* [ option bool : set string ] */ ;
         SWAP
         /* [ set string : option bool ] */ ;
         PAIR
         /* [ pair (set string) (option bool) ] */ ;
         NIL operation
         /* [ list operation : pair (set string) (option bool) ] */ ;
         PAIR
         /* [ pair (list operation) (set string) (option bool) ] */ } }
