
./octez-client --protocol PtNairobi9MxcBmKF7avFwkUohUu9KuxHt3w9cBmJ7ULqPD7cY5 --mode mockup --no-base-dir-warnings typecheck script michelson_test_scripts/macros/build_list.tz --details
Well typed
Gas remaining: 1039985.111 units remaining
{ parameter nat ;
  storage (list nat) ;
  code { CAR @counter
         /* [ nat ] */ ;
         NIL @acc nat
         /* [ list nat : nat ] */ ;
         SWAP
         /* [ nat : list nat ] */ ;
         DUP @cmp_num
         /* [ nat : nat : list nat ] */ ;
         PUSH nat 0
         /* [ nat : nat : nat : list nat ] */ ;
         CMPNEQ ;
         LOOP { DUP
                /* [ nat : nat : list nat ] */ ;
                DIP { SWAP /* [ list nat : nat ] */ }
                /* [ nat : list nat : nat ] */ ;
                CONS @acc
                /* [ list nat : nat ] */ ;
                SWAP
                /* [ nat : list nat ] */ ;
                PUSH nat 1
                /* [ nat : nat : list nat ] */ ;
                SWAP
                /* [ nat : nat : list nat ] */ ;
                SUB @counter
                /* [ int : list nat ] */ ;
                DUP
                /* [ int : int : list nat ] */ ;
                DIP { ABS /* [ nat : list nat ] */ }
                /* [ int : nat : list nat ] */ ;
                PUSH int 0
                /* [ int : int : nat : list nat ] */ ;
                CMPNEQ }
         /* [ nat : list nat ] */ ;
         CONS
         /* [ list nat ] */ ;
         NIL operation
         /* [ list operation : list nat ] */ ;
         PAIR
         /* [ pair (list operation) (list nat) ] */ } }
