
./octez-client --protocol PtNairobi9MxcBmKF7avFwkUohUu9KuxHt3w9cBmJ7ULqPD7cY5 --mode mockup --no-base-dir-warnings typecheck script michelson_test_scripts/opcodes/level.tz --details
Well typed
Gas remaining: 1039997.443 units remaining
{ parameter unit ;
  storage nat ;
  code { DROP
         /* [] */ ;
         LEVEL
         /* [ nat ] */ ;
         NIL operation
         /* [ list operation : nat ] */ ;
         PAIR
         /* [ pair (list operation) nat ] */ } }
