
./octez-client --protocol PtNairobi9MxcBmKF7avFwkUohUu9KuxHt3w9cBmJ7ULqPD7cY5 --mode mockup --no-base-dir-warnings typecheck script michelson_test_scripts/opcodes/neg_bls12_381_g2.tz --details
Well typed
Gas remaining: 1039996.837 units remaining
{ parameter bls12_381_g2 ;
  storage (option bls12_381_g2) ;
  code { CAR
         /* [ bls12_381_g2 ] */ ;
         NEG
         /* [ bls12_381_g2 ] */ ;
         SOME
         /* [ option bls12_381_g2 ] */ ;
         NIL operation
         /* [ list operation : option bls12_381_g2 ] */ ;
         PAIR
         /* [ pair (list operation) (option bls12_381_g2) ] */ } }
