
./octez-client --protocol PtNairobi9MxcBmKF7avFwkUohUu9KuxHt3w9cBmJ7ULqPD7cY5 --mode mockup --no-base-dir-warnings typecheck script michelson_test_scripts/mini_scenarios/tickets_store_fst_and_rely_snd.tz --details
Well typed
Gas remaining: 1039988.632 units remaining
{ parameter (pair (pair (ticket string) (ticket string)) address) ;
  storage (option (ticket string)) ;
  code { CAR
         /* [ pair (pair (ticket string) (ticket string)) address ] */ ;
         UNPAIR
         /* [ pair (ticket string) (ticket string) : address ] */ ;
         UNPAIR
         /* [ ticket string : ticket string : address ] */ ;
         DIG 2
         /* [ address : ticket string : ticket string ] */ ;
         CONTRACT
           (ticket string)
         /* [ option (contract (ticket string)) : ticket string : ticket string ] */ ;
         IF_NONE
           { PUSH string "option is None"
             /* [ string : ticket string : ticket string ] */ ;
             FAILWITH
             /* [] */ }
           { /* [ contract (ticket string) : ticket string : ticket string ] */ } ;
         PUSH mutez
              0
         /* [ mutez : contract (ticket string) : ticket string : ticket string ] */ ;
         DIG 3
         /* [ ticket string : mutez : contract (ticket string) : ticket string ] */ ;
         TRANSFER_TOKENS
         /* [ operation : ticket string ] */ ;
         SWAP
         /* [ ticket string : operation ] */ ;
         SOME
         /* [ option (ticket string) : operation ] */ ;
         NIL operation
         /* [ list operation : option (ticket string) : operation ] */ ;
         DIG 2
         /* [ operation : list operation : option (ticket string) ] */ ;
         CONS
         /* [ list operation : option (ticket string) ] */ ;
         PAIR
         /* [ pair (list operation) (option (ticket string)) ] */ } }
