
./octez-client --protocol PtNairobi9MxcBmKF7avFwkUohUu9KuxHt3w9cBmJ7ULqPD7cY5 --mode mockup --no-base-dir-warnings typecheck script michelson_test_scripts/attic/conditionals.tz --details
Well typed
Gas remaining: 1039990.576 units remaining
{ parameter (or string (option int)) ;
  storage string ;
  code { CAR
         /* [ or string (option int) ] */ ;
         IF_LEFT
           { /* [ string ] */ }
           { IF_NONE
               { FAIL }
               { PUSH int 0
                 /* [ int : int ] */ ;
                 CMPGT ;
                 IF { FAIL } { PUSH string "" /* [ string ] */ } } } ;
         NIL operation
         /* [ list operation : string ] */ ;
         PAIR
         /* [ pair (list operation) string ] */ } }
