
./octez-client --protocol PtNairobi9MxcBmKF7avFwkUohUu9KuxHt3w9cBmJ7ULqPD7cY5 --mode mockup --no-base-dir-warnings typecheck script michelson_test_scripts/mini_scenarios/always_fails.tz --details
Well typed
Gas remaining: 1039999.431 units remaining
{ parameter string ; storage unit ; code FAILWITH /* [] */ }
