
./octez-client --protocol PtNairobi9MxcBmKF7avFwkUohUu9KuxHt3w9cBmJ7ULqPD7cY5 --mode mockup --no-base-dir-warnings typecheck script michelson_test_scripts/opcodes/ret_int.tz --details
Well typed
Gas remaining: 1039996.556 units remaining
{ parameter unit ;
  storage (option nat) ;
  code { DROP
         /* [] */ ;
         PUSH nat 300
         /* [ nat ] */ ;
         SOME
         /* [ option nat ] */ ;
         NIL operation
         /* [ list operation : option nat ] */ ;
         PAIR
         /* [ pair (list operation) (option nat) ] */ } }
