
./octez-client --protocol PtNairobi9MxcBmKF7avFwkUohUu9KuxHt3w9cBmJ7ULqPD7cY5 --mode mockup --no-base-dir-warnings typecheck script michelson_test_scripts/attic/fail_amount.tz --details
Well typed
Gas remaining: 1039993.067 units remaining
{ parameter unit ;
  storage unit ;
  code { DROP
         /* [] */ ;
         AMOUNT
         /* [ mutez ] */ ;
         PUSH mutez 10000000
         /* [ mutez : mutez ] */ ;
         CMPGT ;
         IF { FAIL } { /* [] */ } ;
         UNIT
         /* [ unit ] */ ;
         NIL operation
         /* [ list operation : unit ] */ ;
         PAIR
         /* [ pair (list operation) unit ] */ } }
