
./octez-client --protocol PtNairobi9MxcBmKF7avFwkUohUu9KuxHt3w9cBmJ7ULqPD7cY5 --mode mockup --no-base-dir-warnings typecheck script michelson_test_scripts/opcodes/map_map_sideeffect.tz --details
Well typed
Gas remaining: 1039988.534 units remaining
{ parameter nat ;
  storage (pair (map string nat) nat) ;
  code { UNPAIR
         /* [ nat : pair (map string nat) nat ] */ ;
         SWAP
         /* [ pair (map string nat) nat : nat ] */ ;
         CAR
         /* [ map string nat : nat ] */ ;
         DIP 2 { PUSH @sum nat 0 /* [ nat ] */ }
         /* [ map string nat : nat : nat ] */ ;
         MAP { CDR
               /* [ nat : nat : nat ] */ ;
               DIP { DUP /* [ nat : nat : nat ] */ }
               /* [ nat : nat : nat : nat ] */ ;
               ADD
               /* [ nat : nat : nat ] */ ;
               DUP
               /* [ nat : nat : nat : nat ] */ ;
               DUG 2
               /* [ nat : nat : nat : nat ] */ ;
               DIP 2 { ADD @sum /* [ nat ] */ }
               /* [ nat : nat : nat ] */ }
         /* [ map string nat : nat : nat ] */ ;
         DIP { DROP /* [ nat ] */ }
         /* [ map string nat : nat ] */ ;
         PAIR
         /* [ pair (map string nat) nat ] */ ;
         NIL operation
         /* [ list operation : pair (map string nat) nat ] */ ;
         PAIR
         /* [ pair (list operation) (map string nat) nat ] */ } }
