
./octez-client --protocol PtNairobi9MxcBmKF7avFwkUohUu9KuxHt3w9cBmJ7ULqPD7cY5 --mode mockup --no-base-dir-warnings typecheck script michelson_test_scripts/opcodes/not_binary.tz --details
Well typed
Gas remaining: 1039995.545 units remaining
{ parameter (or int nat) ;
  storage (option int) ;
  code { CAR
         /* [ or int nat ] */ ;
         IF_LEFT { NOT /* [ int ] */ } { NOT /* [ int ] */ } ;
         SOME
         /* [ option int ] */ ;
         NIL operation
         /* [ list operation : option int ] */ ;
         PAIR
         /* [ pair (list operation) (option int) ] */ } }
