
./octez-client --protocol PtNairobi9MxcBmKF7avFwkUohUu9KuxHt3w9cBmJ7ULqPD7cY5 --mode mockup --no-base-dir-warnings typecheck script michelson_test_scripts/non_regression/bad_annot_contract.tz --details
Well typed
Gas remaining: 1039996.681 units remaining
{ parameter bytes ;
  storage (option (lambda unit unit)) ;
  code { CAR
         /* [ bytes ] */ ;
         UNPACK (lambda unit unit)
         /* [ option (lambda unit unit) ] */ ;
         NIL operation
         /* [ list operation : option (lambda unit unit) ] */ ;
         PAIR
         /* [ pair (list operation) (option (lambda unit unit)) ] */ } }
