
./octez-client --protocol PtNairobi9MxcBmKF7avFwkUohUu9KuxHt3w9cBmJ7ULqPD7cY5 --mode mockup --no-base-dir-warnings typecheck script michelson_test_scripts/opcodes/set_id.tz --details
Well typed
Gas remaining: 1039997.680 units remaining
{ parameter (set string) ;
  storage (set string) ;
  code { CAR
         /* [ set string ] */ ;
         NIL operation
         /* [ list operation : set string ] */ ;
         PAIR
         /* [ pair (list operation) (set string) ] */ } }
