
./octez-client --protocol PtNairobi9MxcBmKF7avFwkUohUu9KuxHt3w9cBmJ7ULqPD7cY5 --mode mockup --no-base-dir-warnings typecheck script michelson_test_scripts/non_regression/843_bug.tz --details
Well typed
Gas remaining: 1039993.549 units remaining
{ parameter never ;
  storage (pair address (lambda unit unit)) ;
  code { CAR
         /* [ never ] */ ;
         PUSH address "tz1KqTpEZ7Yob7QbPE4Hy4Wo8fHG8LhKxZSx"
         /* [ address : never ] */ ;
         DROP
         /* [ never ] */ ;
         NEVER
         /* [] */ } }
