
./octez-client --protocol PtNairobi9MxcBmKF7avFwkUohUu9KuxHt3w9cBmJ7ULqPD7cY5 --mode mockup --no-base-dir-warnings typecheck script michelson_test_scripts/entrypoints/manager.tz --details
Well typed
Gas remaining: 1039984.397 units remaining
{ parameter (or (lambda %do unit (list operation)) (unit %default)) ;
  storage key_hash ;
  code { UNPAIR
         /* [ or (lambda unit (list operation)) unit : key_hash ] */ ;
         IF_LEFT
           { PUSH mutez 0
             /* [ mutez : lambda unit (list operation) : key_hash ] */ ;
             AMOUNT
             /* [ mutez : mutez : lambda unit (list operation) : key_hash ] */ ;
             ASSERT_CMPEQ ;
             DUUP
             /* [ key_hash : lambda unit (list operation) : key_hash ] */ ;
             IMPLICIT_ACCOUNT
             /* [ contract unit : lambda unit (list operation) : key_hash ] */ ;
             ADDRESS
             /* [ address : lambda unit (list operation) : key_hash ] */ ;
             SENDER
             /* [ address : address : lambda unit (list operation) : key_hash ] */ ;
             ASSERT_CMPEQ ;
             UNIT
             /* [ unit : lambda unit (list operation) : key_hash ] */ ;
             EXEC
             /* [ list operation : key_hash ] */ ;
             PAIR
             /* [ pair (list operation) key_hash ] */ }
           { DROP
             /* [ key_hash ] */ ;
             NIL operation
             /* [ list operation : key_hash ] */ ;
             PAIR
             /* [ pair (list operation) key_hash ] */ } } }
