
./octez-client --protocol PtNairobi9MxcBmKF7avFwkUohUu9KuxHt3w9cBmJ7ULqPD7cY5 --mode mockup --no-base-dir-warnings typecheck script michelson_test_scripts/opcodes/split_string.tz --details
Well typed
Gas remaining: 1039973.337 units remaining
{ parameter string ;
  storage (list string) ;
  code { UNPAIR
         /* [ string : list string ] */ ;
         DIP { NIL string
               /* [ list string : list string ] */ ;
               SWAP
               /* [ list string : list string ] */ ;
               ITER { CONS /* [ list string ] */ }
               /* [ list string ] */ }
         /* [ string : list string ] */ ;
         DUP
         /* [ string : string : list string ] */ ;
         SIZE
         /* [ nat : string : list string ] */ ;
         PUSH nat 0
         /* [ nat : nat : string : list string ] */ ;
         CMPNEQ ;
         DIP { PUSH @index nat 0 /* [ nat : string : list string ] */ }
         /* [ bool : nat : string : list string ] */ ;
         LOOP { PAIR
                /* [ pair nat string : list string ] */ ;
                DUP
                /* [ pair nat string : pair nat string : list string ] */ ;
                DIP { UNPAIR
                      /* [ nat : string : list string ] */ ;
                      DIP { PUSH nat 1 /* [ nat : string : list string ] */ }
                      /* [ nat : nat : string : list string ] */ ;
                      SLICE
                      /* [ option string : list string ] */ ;
                      ASSERT_SOME ;
                      CONS @storage
                      /* [ list string ] */ }
                /* [ pair nat string : list string ] */ ;
                UNPAIR
                /* [ nat : string : list string ] */ ;
                PUSH nat 1
                /* [ nat : nat : string : list string ] */ ;
                ADD @index
                /* [ nat : string : list string ] */ ;
                DUP
                /* [ nat : nat : string : list string ] */ ;
                DIP { DIP { DUP /* [ string : string : list string ] */ }
                      /* [ nat : string : string : list string ] */ ;
                      SWAP
                      /* [ string : nat : string : list string ] */ ;
                      SIZE
                      /* [ nat : nat : string : list string ] */ ;
                      CMPNEQ }
                /* [ nat : bool : string : list string ] */ ;
                SWAP
                /* [ bool : nat : string : list string ] */ }
         /* [ nat : string : list string ] */ ;
         DROP
         /* [ string : list string ] */ ;
         DROP
         /* [ list string ] */ ;
         NIL string
         /* [ list string : list string ] */ ;
         SWAP
         /* [ list string : list string ] */ ;
         ITER { CONS /* [ list string ] */ }
         /* [ list string ] */ ;
         NIL operation
         /* [ list operation : list string ] */ ;
         PAIR
         /* [ pair (list operation) (list string) ] */ } }
