
./octez-client --protocol PtNairobi9MxcBmKF7avFwkUohUu9KuxHt3w9cBmJ7ULqPD7cY5 --mode mockup --no-base-dir-warnings typecheck script michelson_test_scripts/mini_scenarios/constant_unit.tz --details
Well typed
Gas remaining: 1039124.469 units remaining
{ parameter (constant "exprvKFFbc7SnPjkPZgyhaHewQhmrouNjNae3DpsQ8KuADn9i2WuJ8") ;
  storage (constant "exprvKFFbc7SnPjkPZgyhaHewQhmrouNjNae3DpsQ8KuADn9i2WuJ8") ;
  code { /* [] */
         DROP ;
         PUSH unit
              /* [ list operation : unit ] */
              (constant
                 "expruJpGVgueH6vjZDZQRjgXUuHBi4Y6UQ3cbz6swP2FMVybvnDjm5"
                 /* [ pair (list operation) unit ] */) ;
         NIL operation ;
         PAIR }
  /* [] */ }
