
./octez-client --protocol PtNairobi9MxcBmKF7avFwkUohUu9KuxHt3w9cBmJ7ULqPD7cY5 --mode mockup --no-base-dir-warnings typecheck script michelson_test_scripts/opcodes/sha3.tz --details
Well typed
Gas remaining: 1039996.837 units remaining
{ storage (option bytes) ;
  parameter bytes ;
  code { CAR
         /* [ bytes ] */ ;
         SHA3
         /* [ bytes ] */ ;
         SOME
         /* [ option bytes ] */ ;
         NIL operation
         /* [ list operation : option bytes ] */ ;
         PAIR
         /* [ pair (list operation) (option bytes) ] */ } }
