
./octez-client --protocol PtNairobi9MxcBmKF7avFwkUohUu9KuxHt3w9cBmJ7ULqPD7cY5 --mode mockup --no-base-dir-warnings typecheck script michelson_test_scripts/mini_scenarios/self_address_receiver.tz --details
Well typed
Gas remaining: 1039992.799 units remaining
{ parameter (lambda unit address) ;
  storage unit ;
  code { UNPAIR
         /* [ lambda unit address : unit ] */ ;
         UNIT
         /* [ unit : lambda unit address : unit ] */ ;
         EXEC
         /* [ address : unit ] */ ;
         SELF_ADDRESS
         /* [ address : address : unit ] */ ;
         ASSERT_CMPEQ ;
         NIL operation
         /* [ list operation : unit ] */ ;
         PAIR
         /* [ pair (list operation) unit ] */ } }
