
./octez-client --protocol PtNairobi9MxcBmKF7avFwkUohUu9KuxHt3w9cBmJ7ULqPD7cY5 --mode mockup --no-base-dir-warnings typecheck script michelson_test_scripts/mini_scenarios/execution_order_storer.tz --details
Well typed
Gas remaining: 1039996.980 units remaining
{ parameter string ;
  storage string ;
  code { UNPAIR
         /* [ string : string ] */ ;
         SWAP
         /* [ string : string ] */ ;
         CONCAT
         /* [ string ] */ ;
         NIL operation
         /* [ list operation : string ] */ ;
         PAIR
         /* [ pair (list operation) string ] */ } }
