
./octez-client --protocol PtNairobi9MxcBmKF7avFwkUohUu9KuxHt3w9cBmJ7ULqPD7cY5 --mode mockup --no-base-dir-warnings typecheck script michelson_test_scripts/opcodes/str_id.tz --details
Well typed
Gas remaining: 1039997.300 units remaining
{ parameter string ;
  storage (option string) ;
  code { CAR
         /* [ string ] */ ;
         SOME
         /* [ option string ] */ ;
         NIL operation
         /* [ list operation : option string ] */ ;
         PAIR
         /* [ pair (list operation) (option string) ] */ } }
