
./octez-client --protocol PtNairobi9MxcBmKF7avFwkUohUu9KuxHt3w9cBmJ7ULqPD7cY5 --mode mockup --no-base-dir-warnings typecheck script michelson_test_scripts/macros/take_my_money.tz --details
Well typed
Gas remaining: 1039993.750 units remaining
{ parameter key_hash ;
  storage unit ;
  code { CAR
         /* [ key_hash ] */ ;
         IMPLICIT_ACCOUNT
         /* [ contract unit ] */ ;
         DIP { UNIT /* [ unit ] */ }
         /* [ contract unit : unit ] */ ;
         PUSH mutez 1000000
         /* [ mutez : contract unit : unit ] */ ;
         UNIT
         /* [ unit : mutez : contract unit : unit ] */ ;
         TRANSFER_TOKENS
         /* [ operation : unit ] */ ;
         NIL operation
         /* [ list operation : operation : unit ] */ ;
         SWAP
         /* [ operation : list operation : unit ] */ ;
         CONS
         /* [ list operation : unit ] */ ;
         PAIR
         /* [ pair (list operation) unit ] */ } }
