
./octez-client --protocol PtNairobi9MxcBmKF7avFwkUohUu9KuxHt3w9cBmJ7ULqPD7cY5 --mode mockup --no-base-dir-warnings typecheck script michelson_test_scripts/macros/compare.tz --details
Well typed
Gas remaining: 1039971.322 units remaining
{ parameter (pair mutez mutez) ;
  storage (list bool) ;
  code { CAR
         /* [ pair mutez mutez ] */ ;
         DUP
         /* [ pair mutez mutez : pair mutez mutez ] */ ;
         DUP
         /* [ pair mutez mutez : pair mutez mutez : pair mutez mutez ] */ ;
         DUP
         /* [ pair mutez mutez : pair mutez mutez : pair mutez mutez : pair mutez mutez ] */ ;
         DUP
         /* [ pair mutez mutez : pair mutez mutez : pair mutez mutez : pair mutez mutez
            : pair mutez mutez ] */ ;
         DIIIIIP
           { NIL bool /* [ list bool ] */ }
         /* [ pair mutez mutez : pair mutez mutez : pair mutez mutez : pair mutez mutez
            : pair mutez mutez : list bool ] */ ;
         DIIIIP
           { DUP
             /* [ pair mutez mutez : pair mutez mutez : list bool ] */ ;
             CAR
             /* [ mutez : pair mutez mutez : list bool ] */ ;
             DIP { CDR /* [ mutez : list bool ] */ }
             /* [ mutez : mutez : list bool ] */ ;
             COMPARE
             /* [ int : list bool ] */ ;
             LE
             /* [ bool : list bool ] */ ;
             CONS
             /* [ list bool ] */ }
         /* [ pair mutez mutez : pair mutez mutez : pair mutez mutez : pair mutez mutez
            : list bool ] */ ;
         DIIIP
           { DUP
             /* [ pair mutez mutez : pair mutez mutez : list bool ] */ ;
             CAR
             /* [ mutez : pair mutez mutez : list bool ] */ ;
             DIP { CDR /* [ mutez : list bool ] */ }
             /* [ mutez : mutez : list bool ] */ ;
             COMPARE
             /* [ int : list bool ] */ ;
             GE
             /* [ bool : list bool ] */ ;
             CONS
             /* [ list bool ] */ }
         /* [ pair mutez mutez : pair mutez mutez : pair mutez mutez : list bool ] */ ;
         DIIP { DUP
                /* [ pair mutez mutez : pair mutez mutez : list bool ] */ ;
                CAR
                /* [ mutez : pair mutez mutez : list bool ] */ ;
                DIP { CDR /* [ mutez : list bool ] */ }
                /* [ mutez : mutez : list bool ] */ ;
                COMPARE
                /* [ int : list bool ] */ ;
                LT
                /* [ bool : list bool ] */ ;
                CONS
                /* [ list bool ] */ }
         /* [ pair mutez mutez : pair mutez mutez : list bool ] */ ;
         DIP { DUP
               /* [ pair mutez mutez : pair mutez mutez : list bool ] */ ;
               CAR
               /* [ mutez : pair mutez mutez : list bool ] */ ;
               DIP { CDR /* [ mutez : list bool ] */ }
               /* [ mutez : mutez : list bool ] */ ;
               COMPARE
               /* [ int : list bool ] */ ;
               GT
               /* [ bool : list bool ] */ ;
               CONS
               /* [ list bool ] */ }
         /* [ pair mutez mutez : list bool ] */ ;
         DUP
         /* [ pair mutez mutez : pair mutez mutez : list bool ] */ ;
         CAR
         /* [ mutez : pair mutez mutez : list bool ] */ ;
         DIP { CDR /* [ mutez : list bool ] */ }
         /* [ mutez : mutez : list bool ] */ ;
         COMPARE
         /* [ int : list bool ] */ ;
         EQ
         /* [ bool : list bool ] */ ;
         CONS
         /* [ list bool ] */ ;
         NIL operation
         /* [ list operation : list bool ] */ ;
         PAIR
         /* [ pair (list operation) (list bool) ] */ } }
