
./octez-client --protocol PtNairobi9MxcBmKF7avFwkUohUu9KuxHt3w9cBmJ7ULqPD7cY5 --mode mockup --no-base-dir-warnings typecheck script michelson_test_scripts/macros/assert.tz --details
Well typed
Gas remaining: 1039995.213 units remaining
{ parameter bool ;
  storage unit ;
  code { CAR
         /* [ bool ] */ ;
         ASSERT ;
         UNIT
         /* [ unit ] */ ;
         NIL operation
         /* [ list operation : unit ] */ ;
         PAIR
         /* [ pair (list operation) unit ] */ } }
