
./octez-client --protocol PtNairobi9MxcBmKF7avFwkUohUu9KuxHt3w9cBmJ7ULqPD7cY5 --mode mockup --no-base-dir-warnings run script michelson_test_scripts/opcodes/bls12_381_z_fr_int.tz on storage 0x0100000000000000000000000000000000000000000000000000000000000000 and input 2 --level 1 --trace-stack
storage
  0x0200000000000000000000000000000000000000000000000000000000000000
emitted operations
  
big_map diff
  
trace
  - location: 7 (just consumed gas: 4.940)
    [ (Pair 2 0x0100000000000000000000000000000000000000000000000000000000000000) ]
  - location: 7 (just consumed gas: 0.010)
    [ 2
      0x0100000000000000000000000000000000000000000000000000000000000000 ]
  - location: 8 (just consumed gas: 0.010)
    [ 0x0100000000000000000000000000000000000000000000000000000000000000
      2 ]
  - location: 9 (just consumed gas: 0.266)
    [ 0x0200000000000000000000000000000000000000000000000000000000000000 ]
  - location: 10 (just consumed gas: 0.010)
    [ {}
      0x0200000000000000000000000000000000000000000000000000000000000000 ]
  - location: 12 (just consumed gas: 0.010)
    [ (Pair {} 0x0200000000000000000000000000000000000000000000000000000000000000) ]

