
./octez-client --protocol PtNairobi9MxcBmKF7avFwkUohUu9KuxHt3w9cBmJ7ULqPD7cY5 --mode mockup --no-base-dir-warnings run script michelson_test_scripts/opcodes/balance.tz on storage 111 and input Unit --level 1 --trace-stack
storage
  4000000000000
emitted operations
  
big_map diff
  
trace
  - location: 7 (just consumed gas: 4.267)
    [ (Pair Unit 111) ]
  - location: 7 (just consumed gas: 0.010)
    [  ]
  - location: 8 (just consumed gas: 0.010)
    [ 4000000000000 ]
  - location: 9 (just consumed gas: 0.010)
    [ {}
      4000000000000 ]
  - location: 11 (just consumed gas: 0.010)
    [ (Pair {} 4000000000000) ]

