
./octez-client --protocol PtNairobi9MxcBmKF7avFwkUohUu9KuxHt3w9cBmJ7ULqPD7cY5 --mode mockup --no-base-dir-warnings run script michelson_test_scripts/opcodes/diff_timestamps.tz on storage 111 and input '(Pair 0 0)' --level 1 --trace-stack
storage
  0
emitted operations
  
big_map diff
  
trace
  - location: 9 (just consumed gas: 7.437)
    [ (Pair (Pair "1970-01-01T00:00:00Z" "1970-01-01T00:00:00Z") 111) ]
  - location: 9 (just consumed gas: 0.010)
    [ (Pair "1970-01-01T00:00:00Z" "1970-01-01T00:00:00Z") ]
  - location: 10 (just consumed gas: 0.010)
    [ (Pair "1970-01-01T00:00:00Z" "1970-01-01T00:00:00Z")
      (Pair "1970-01-01T00:00:00Z" "1970-01-01T00:00:00Z") ]
  - location: 11 (just consumed gas: 0.010)
    [ "1970-01-01T00:00:00Z"
      (Pair "1970-01-01T00:00:00Z" "1970-01-01T00:00:00Z") ]
  - location: 12 (just consumed gas: 0)
    [ (Pair "1970-01-01T00:00:00Z" "1970-01-01T00:00:00Z") ]
  - location: 14 (just consumed gas: 0.010)
    [ "1970-01-01T00:00:00Z" ]
  - location: 12 (just consumed gas: 0.025)
    [ "1970-01-01T00:00:00Z"
      "1970-01-01T00:00:00Z" ]
  - location: 15 (just consumed gas: 0.035)
    [ 0 ]
  - location: 16 (just consumed gas: 0.010)
    [ {}
      0 ]
  - location: 18 (just consumed gas: 0.010)
    [ (Pair {} 0) ]

