
./octez-client --protocol PtNairobi9MxcBmKF7avFwkUohUu9KuxHt3w9cBmJ7ULqPD7cY5 --mode mockup --no-base-dir-warnings run script michelson_test_scripts/opcodes/and.tz on storage None and input '(Pair False False)' --level 1 --trace-stack
storage
  (Some False)
emitted operations
  
big_map diff
  
trace
  - location: 10 (just consumed gas: 7.572)
    [ (Pair (Pair False False) None) ]
  - location: 10 (just consumed gas: 0.010)
    [ (Pair False False) ]
  - location: 11 (just consumed gas: 0.010)
    [ False
      False ]
  - location: 12 (just consumed gas: 0.010)
    [ False ]
  - location: 13 (just consumed gas: 0.010)
    [ (Some False) ]
  - location: 14 (just consumed gas: 0.010)
    [ {}
      (Some False) ]
  - location: 16 (just consumed gas: 0.010)
    [ (Pair {} (Some False)) ]
  - location: 17 (just consumed gas: 0.010)
    [ {}
      (Some False) ]
  - location: 18 (just consumed gas: 0.010)
    [ (Pair {} (Some False)) ]

