
./octez-client --protocol PtNairobi9MxcBmKF7avFwkUohUu9KuxHt3w9cBmJ7ULqPD7cY5 --mode mockup --no-base-dir-warnings run script michelson_test_scripts/opcodes/compare.tz on storage Unit and input Unit --level 1 --trace-stack
storage
  Unit
emitted operations
  
big_map diff
  
trace
  - location: 7 (just consumed gas: 200.472)
    [ (Pair Unit Unit) ]
  - location: 7 (just consumed gas: 0.010)
    [  ]
  - location: 8 (just consumed gas: 0.010)
    [ True ]
  - location: 11 (just consumed gas: 0.010)
    [ True
      True ]
  - location: 12 (just consumed gas: 0.035)
    [ 0 ]
  - location: 14 (just consumed gas: 0.010)
    [ True ]
  - location: 15 (just consumed gas: 0)
    [  ]
  - location: 15 (just consumed gas: 0.015)
    [  ]
  - location: 21 (just consumed gas: 0.010)
    [ False ]
  - location: 24 (just consumed gas: 0.010)
    [ False
      False ]
  - location: 25 (just consumed gas: 0.035)
    [ 0 ]
  - location: 27 (just consumed gas: 0.010)
    [ True ]
  - location: 28 (just consumed gas: 0)
    [  ]
  - location: 28 (just consumed gas: 0.015)
    [  ]
  - location: 34 (just consumed gas: 0.010)
    [ False ]
  - location: 37 (just consumed gas: 0.010)
    [ True
      False ]
  - location: 40 (just consumed gas: 0.035)
    [ 1 ]
  - location: 42 (just consumed gas: 0.010)
    [ True ]
  - location: 43 (just consumed gas: 0)
    [  ]
  - location: 43 (just consumed gas: 0.015)
    [  ]
  - location: 49 (just consumed gas: 0.010)
    [ True ]
  - location: 52 (just consumed gas: 0.010)
    [ False
      True ]
  - location: 55 (just consumed gas: 0.035)
    [ -1 ]
  - location: 57 (just consumed gas: 0.010)
    [ True ]
  - location: 58 (just consumed gas: 0)
    [  ]
  - location: 58 (just consumed gas: 0.015)
    [  ]
  - location: 64 (just consumed gas: 0.010)
    [ 0xaabbcc ]
  - location: 67 (just consumed gas: 0.010)
    [ 0xaabbcc
      0xaabbcc ]
  - location: 68 (just consumed gas: 0.035)
    [ 0 ]
  - location: 70 (just consumed gas: 0.010)
    [ True ]
  - location: 71 (just consumed gas: 0)
    [  ]
  - location: 71 (just consumed gas: 0.015)
    [  ]
  - location: 77 (just consumed gas: 0.010)
    [ 0x ]
  - location: 80 (just consumed gas: 0.010)
    [ 0x
      0x ]
  - location: 83 (just consumed gas: 0.035)
    [ 0 ]
  - location: 85 (just consumed gas: 0.010)
    [ True ]
  - location: 86 (just consumed gas: 0)
    [  ]
  - location: 86 (just consumed gas: 0.015)
    [  ]
  - location: 92 (just consumed gas: 0.010)
    [ 0x ]
  - location: 95 (just consumed gas: 0.010)
    [ 0x01
      0x ]
  - location: 98 (just consumed gas: 0.035)
    [ 1 ]
  - location: 100 (just consumed gas: 0.010)
    [ True ]
  - location: 101 (just consumed gas: 0)
    [  ]
  - location: 101 (just consumed gas: 0.015)
    [  ]
  - location: 107 (just consumed gas: 0.010)
    [ 0x01 ]
  - location: 110 (just consumed gas: 0.010)
    [ 0x02
      0x01 ]
  - location: 113 (just consumed gas: 0.035)
    [ 1 ]
  - location: 115 (just consumed gas: 0.010)
    [ True ]
  - location: 116 (just consumed gas: 0)
    [  ]
  - location: 116 (just consumed gas: 0.015)
    [  ]
  - location: 122 (just consumed gas: 0.010)
    [ 0x02 ]
  - location: 125 (just consumed gas: 0.010)
    [ 0x01
      0x02 ]
  - location: 128 (just consumed gas: 0.035)
    [ -1 ]
  - location: 130 (just consumed gas: 0.010)
    [ True ]
  - location: 131 (just consumed gas: 0)
    [  ]
  - location: 131 (just consumed gas: 0.015)
    [  ]
  - location: 137 (just consumed gas: 0.010)
    [ 1 ]
  - location: 140 (just consumed gas: 0.010)
    [ 1
      1 ]
  - location: 141 (just consumed gas: 0.035)
    [ 0 ]
  - location: 143 (just consumed gas: 0.010)
    [ True ]
  - location: 144 (just consumed gas: 0)
    [  ]
  - location: 144 (just consumed gas: 0.015)
    [  ]
  - location: 150 (just consumed gas: 0.010)
    [ 10 ]
  - location: 153 (just consumed gas: 0.010)
    [ 5
      10 ]
  - location: 156 (just consumed gas: 0.035)
    [ -1 ]
  - location: 158 (just consumed gas: 0.010)
    [ True ]
  - location: 159 (just consumed gas: 0)
    [  ]
  - location: 159 (just consumed gas: 0.015)
    [  ]
  - location: 165 (just consumed gas: 0.010)
    [ -4 ]
  - location: 168 (just consumed gas: 0.010)
    [ 1923
      -4 ]
  - location: 171 (just consumed gas: 0.035)
    [ 1 ]
  - location: 173 (just consumed gas: 0.010)
    [ True ]
  - location: 174 (just consumed gas: 0)
    [  ]
  - location: 174 (just consumed gas: 0.015)
    [  ]
  - location: 180 (just consumed gas: 0.010)
    [ 1 ]
  - location: 183 (just consumed gas: 0.010)
    [ 1
      1 ]
  - location: 184 (just consumed gas: 0.035)
    [ 0 ]
  - location: 186 (just consumed gas: 0.010)
    [ True ]
  - location: 187 (just consumed gas: 0)
    [  ]
  - location: 187 (just consumed gas: 0.015)
    [  ]
  - location: 193 (just consumed gas: 0.010)
    [ 10 ]
  - location: 196 (just consumed gas: 0.010)
    [ 5
      10 ]
  - location: 199 (just consumed gas: 0.035)
    [ -1 ]
  - location: 201 (just consumed gas: 0.010)
    [ True ]
  - location: 202 (just consumed gas: 0)
    [  ]
  - location: 202 (just consumed gas: 0.015)
    [  ]
  - location: 208 (just consumed gas: 0.010)
    [ 4 ]
  - location: 211 (just consumed gas: 0.010)
    [ 1923
      4 ]
  - location: 214 (just consumed gas: 0.035)
    [ 1 ]
  - location: 216 (just consumed gas: 0.010)
    [ True ]
  - location: 217 (just consumed gas: 0)
    [  ]
  - location: 217 (just consumed gas: 0.015)
    [  ]
  - location: 223 (just consumed gas: 0.010)
    [ "tz1KqTpEZ7Yob7QbPE4Hy4Wo8fHG8LhKxZSx" ]
  - location: 226 (just consumed gas: 0.010)
    [ "tz1KqTpEZ7Yob7QbPE4Hy4Wo8fHG8LhKxZSx"
      "tz1KqTpEZ7Yob7QbPE4Hy4Wo8fHG8LhKxZSx" ]
  - location: 227 (just consumed gas: 0.036)
    [ 0 ]
  - location: 229 (just consumed gas: 0.010)
    [ True ]
  - location: 230 (just consumed gas: 0)
    [  ]
  - location: 230 (just consumed gas: 0.015)
    [  ]
  - location: 236 (just consumed gas: 0.010)
    [ "tz1ddb9NMYHZi5UzPdzTZMYQQZoMub195zgv" ]
  - location: 239 (just consumed gas: 0.010)
    [ "tz1KqTpEZ7Yob7QbPE4Hy4Wo8fHG8LhKxZSx"
      "tz1ddb9NMYHZi5UzPdzTZMYQQZoMub195zgv" ]
  - location: 242 (just consumed gas: 0.036)
    [ -1 ]
  - location: 244 (just consumed gas: 0.010)
    [ True ]
  - location: 245 (just consumed gas: 0)
    [  ]
  - location: 245 (just consumed gas: 0.015)
    [  ]
  - location: 251 (just consumed gas: 0.010)
    [ "tz1KqTpEZ7Yob7QbPE4Hy4Wo8fHG8LhKxZSx" ]
  - location: 254 (just consumed gas: 0.010)
    [ "tz1ddb9NMYHZi5UzPdzTZMYQQZoMub195zgv"
      "tz1KqTpEZ7Yob7QbPE4Hy4Wo8fHG8LhKxZSx" ]
  - location: 257 (just consumed gas: 0.036)
    [ 1 ]
  - location: 259 (just consumed gas: 0.010)
    [ True ]
  - location: 260 (just consumed gas: 0)
    [  ]
  - location: 260 (just consumed gas: 0.015)
    [  ]
  - location: 266 (just consumed gas: 0.010)
    [ 1 ]
  - location: 269 (just consumed gas: 0.010)
    [ 1
      1 ]
  - location: 270 (just consumed gas: 0.035)
    [ 0 ]
  - location: 272 (just consumed gas: 0.010)
    [ True ]
  - location: 273 (just consumed gas: 0)
    [  ]
  - location: 273 (just consumed gas: 0.015)
    [  ]
  - location: 279 (just consumed gas: 0.010)
    [ 10 ]
  - location: 282 (just consumed gas: 0.010)
    [ 5
      10 ]
  - location: 285 (just consumed gas: 0.035)
    [ -1 ]
  - location: 287 (just consumed gas: 0.010)
    [ True ]
  - location: 288 (just consumed gas: 0)
    [  ]
  - location: 288 (just consumed gas: 0.015)
    [  ]
  - location: 294 (just consumed gas: 0.010)
    [ 4 ]
  - location: 297 (just consumed gas: 0.010)
    [ 1923
      4 ]
  - location: 300 (just consumed gas: 0.035)
    [ 1 ]
  - location: 302 (just consumed gas: 0.010)
    [ True ]
  - location: 303 (just consumed gas: 0)
    [  ]
  - location: 303 (just consumed gas: 0.015)
    [  ]
  - location: 309 (just consumed gas: 0.010)
    [ "AABBCC" ]
  - location: 312 (just consumed gas: 0.010)
    [ "AABBCC"
      "AABBCC" ]
  - location: 313 (just consumed gas: 0.035)
    [ 0 ]
  - location: 315 (just consumed gas: 0.010)
    [ True ]
  - location: 316 (just consumed gas: 0)
    [  ]
  - location: 316 (just consumed gas: 0.015)
    [  ]
  - location: 322 (just consumed gas: 0.010)
    [ "" ]
  - location: 325 (just consumed gas: 0.010)
    [ ""
      "" ]
  - location: 328 (just consumed gas: 0.035)
    [ 0 ]
  - location: 330 (just consumed gas: 0.010)
    [ True ]
  - location: 331 (just consumed gas: 0)
    [  ]
  - location: 331 (just consumed gas: 0.015)
    [  ]
  - location: 337 (just consumed gas: 0.010)
    [ "" ]
  - location: 340 (just consumed gas: 0.010)
    [ "a"
      "" ]
  - location: 343 (just consumed gas: 0.035)
    [ 1 ]
  - location: 345 (just consumed gas: 0.010)
    [ True ]
  - location: 346 (just consumed gas: 0)
    [  ]
  - location: 346 (just consumed gas: 0.015)
    [  ]
  - location: 352 (just consumed gas: 0.010)
    [ "a" ]
  - location: 355 (just consumed gas: 0.010)
    [ "b"
      "a" ]
  - location: 358 (just consumed gas: 0.035)
    [ 1 ]
  - location: 360 (just consumed gas: 0.010)
    [ True ]
  - location: 361 (just consumed gas: 0)
    [  ]
  - location: 361 (just consumed gas: 0.015)
    [  ]
  - location: 367 (just consumed gas: 0.010)
    [ "b" ]
  - location: 370 (just consumed gas: 0.010)
    [ "a"
      "b" ]
  - location: 373 (just consumed gas: 0.035)
    [ -1 ]
  - location: 375 (just consumed gas: 0.010)
    [ True ]
  - location: 376 (just consumed gas: 0)
    [  ]
  - location: 376 (just consumed gas: 0.015)
    [  ]
  - location: 382 (just consumed gas: 0.010)
    [ "2019-09-16T08:38:05Z" ]
  - location: 385 (just consumed gas: 0.010)
    [ "2019-09-16T08:38:05Z"
      "2019-09-16T08:38:05Z" ]
  - location: 386 (just consumed gas: 0.035)
    [ 0 ]
  - location: 388 (just consumed gas: 0.010)
    [ True ]
  - location: 389 (just consumed gas: 0)
    [  ]
  - location: 389 (just consumed gas: 0.015)
    [  ]
  - location: 395 (just consumed gas: 0.010)
    [ "2017-09-16T08:38:04Z" ]
  - location: 398 (just consumed gas: 0.010)
    [ "2019-09-16T08:38:05Z"
      "2017-09-16T08:38:04Z" ]
  - location: 401 (just consumed gas: 0.035)
    [ 1 ]
  - location: 403 (just consumed gas: 0.010)
    [ True ]
  - location: 404 (just consumed gas: 0)
    [  ]
  - location: 404 (just consumed gas: 0.015)
    [  ]
  - location: 410 (just consumed gas: 0.010)
    [ "2019-09-16T08:38:05Z" ]
  - location: 413 (just consumed gas: 0.010)
    [ "2019-09-16T08:38:04Z"
      "2019-09-16T08:38:05Z" ]
  - location: 416 (just consumed gas: 0.035)
    [ -1 ]
  - location: 418 (just consumed gas: 0.010)
    [ True ]
  - location: 419 (just consumed gas: 0)
    [  ]
  - location: 419 (just consumed gas: 0.015)
    [  ]
  - location: 425 (just consumed gas: 0.010)
    [ Unit ]
  - location: 426 (just consumed gas: 0.010)
    [ {}
      Unit ]
  - location: 428 (just consumed gas: 0.010)
    [ (Pair {} Unit) ]

