
./octez-client --protocol PtNairobi9MxcBmKF7avFwkUohUu9KuxHt3w9cBmJ7ULqPD7cY5 --mode mockup --no-base-dir-warnings run script michelson_test_scripts/opcodes/and_logical_1.tz on storage False and input '(Pair False False)' --level 1 --trace-stack
storage
  False
emitted operations
  
big_map diff
  
trace
  - location: 9 (just consumed gas: 5.366)
    [ (Pair (Pair False False) False) ]
  - location: 9 (just consumed gas: 0.010)
    [ (Pair False False) ]
  - location: 10 (just consumed gas: 0.010)
    [ False
      False ]
  - location: 11 (just consumed gas: 0.010)
    [ False ]
  - location: 12 (just consumed gas: 0.010)
    [ {}
      False ]
  - location: 14 (just consumed gas: 0.010)
    [ (Pair {} False) ]

