
./octez-client --protocol PtNairobi9MxcBmKF7avFwkUohUu9KuxHt3w9cBmJ7ULqPD7cY5 --mode mockup --no-base-dir-warnings run script michelson_test_scripts/opcodes/emit.tz on storage Unit and input Unit --level 1 --trace-stack
storage
  Unit
emitted operations
  Internal Event:
    From: KT1BEqzn5Wx8uJrZNvuS9DVHmLvG9td3fDLi
    Type: (or nat string)
    Tag: event
    Payload: (Left 10)
  Internal Event:
    From: KT1BEqzn5Wx8uJrZNvuS9DVHmLvG9td3fDLi
    Type: (or (nat %number) (string %words))
    Tag: event
    Payload: (Right "lorem ipsum")
big_map diff
  
trace
  - location: 7 (just consumed gas: 13.135)
    [ (Pair Unit Unit) ]
  - location: 7 (just consumed gas: 0.010)
    [  ]
  - location: 8 (just consumed gas: 0.010)
    [ Unit ]
  - location: 9 (just consumed gas: 0.010)
    [ 10
      Unit ]
  - location: 12 (just consumed gas: 0.010)
    [ (Left 10)
      Unit ]
  - location: 14 (just consumed gas: 0.487)
    [ 0x011d23c1d3d2f8a4ea5e8784b8f7ecf2ad304c0fe600000004076403620368ffff056576656e74ff0505000a
      Unit ]
  - location: 15 (just consumed gas: 0.010)
    [ "lorem ipsum"
      0x011d23c1d3d2f8a4ea5e8784b8f7ecf2ad304c0fe600000004076403620368ffff056576656e74ff0505000a
      Unit ]
  - location: 18 (just consumed gas: 0.010)
    [ (Right "lorem ipsum")
      0x011d23c1d3d2f8a4ea5e8784b8f7ecf2ad304c0fe600000004076403620368ffff056576656e74ff0505000a
      Unit ]
  - location: 20 (just consumed gas: 0.572)
    [ 0x011d23c1d3d2f8a4ea5e8784b8f7ecf2ad304c0fe6000001040764046200000007256e756d62657204680000000625776f726473ffff056576656e74ff0508010000000b6c6f72656d20697073756d
      0x011d23c1d3d2f8a4ea5e8784b8f7ecf2ad304c0fe600000004076403620368ffff056576656e74ff0505000a
      Unit ]
  - location: 24 (just consumed gas: 0.010)
    [ {}
      0x011d23c1d3d2f8a4ea5e8784b8f7ecf2ad304c0fe6000001040764046200000007256e756d62657204680000000625776f726473ffff056576656e74ff0508010000000b6c6f72656d20697073756d
      0x011d23c1d3d2f8a4ea5e8784b8f7ecf2ad304c0fe600000004076403620368ffff056576656e74ff0505000a
      Unit ]
  - location: 26 (just consumed gas: 0.010)
    [ 0x011d23c1d3d2f8a4ea5e8784b8f7ecf2ad304c0fe6000001040764046200000007256e756d62657204680000000625776f726473ffff056576656e74ff0508010000000b6c6f72656d20697073756d
      {}
      0x011d23c1d3d2f8a4ea5e8784b8f7ecf2ad304c0fe600000004076403620368ffff056576656e74ff0505000a
      Unit ]
  - location: 27 (just consumed gas: 0.010)
    [ { 0x011d23c1d3d2f8a4ea5e8784b8f7ecf2ad304c0fe6000001040764046200000007256e756d62657204680000000625776f726473ffff056576656e74ff0508010000000b6c6f72656d20697073756d }
      0x011d23c1d3d2f8a4ea5e8784b8f7ecf2ad304c0fe600000004076403620368ffff056576656e74ff0505000a
      Unit ]
  - location: 28 (just consumed gas: 0.010)
    [ 0x011d23c1d3d2f8a4ea5e8784b8f7ecf2ad304c0fe600000004076403620368ffff056576656e74ff0505000a
      { 0x011d23c1d3d2f8a4ea5e8784b8f7ecf2ad304c0fe6000001040764046200000007256e756d62657204680000000625776f726473ffff056576656e74ff0508010000000b6c6f72656d20697073756d }
      Unit ]
  - location: 29 (just consumed gas: 0.010)
    [ { 0x011d23c1d3d2f8a4ea5e8784b8f7ecf2ad304c0fe600000004076403620368ffff056576656e74ff0505000a ;
        0x011d23c1d3d2f8a4ea5e8784b8f7ecf2ad304c0fe6000001040764046200000007256e756d62657204680000000625776f726473ffff056576656e74ff0508010000000b6c6f72656d20697073756d }
      Unit ]
  - location: 30 (just consumed gas: 0.010)
    [ (Pair { 0x011d23c1d3d2f8a4ea5e8784b8f7ecf2ad304c0fe600000004076403620368ffff056576656e74ff0505000a ;
              0x011d23c1d3d2f8a4ea5e8784b8f7ecf2ad304c0fe6000001040764046200000007256e756d62657204680000000625776f726473ffff056576656e74ff0508010000000b6c6f72656d20697073756d }
            Unit) ]

