
./octez-client --protocol PtNairobi9MxcBmKF7avFwkUohUu9KuxHt3w9cBmJ7ULqPD7cY5 --mode mockup --no-base-dir-warnings run script michelson_test_scripts/opcodes/set_member.tz on storage '(Pair { "Hello" ; "World" } None)' and input '""' --level 1 --trace-stack
storage
  (Pair { "Hello" ; "World" } (Some False))
emitted operations
  
big_map diff
  
trace
  - location: 11 (just consumed gas: 14.357)
    [ (Pair "" { "Hello" ; "World" } None) ]
  - location: 11 (just consumed gas: 0.010)
    [ (Pair "" { "Hello" ; "World" } None)
      (Pair "" { "Hello" ; "World" } None) ]
  - location: 12 (just consumed gas: 0.010)
    [ (Pair "" { "Hello" ; "World" } None)
      (Pair "" { "Hello" ; "World" } None)
      (Pair "" { "Hello" ; "World" } None) ]
  - location: 13 (just consumed gas: 0.010)
    [ ""
      (Pair "" { "Hello" ; "World" } None)
      (Pair "" { "Hello" ; "World" } None) ]
  - location: 14 (just consumed gas: 0)
    [ (Pair "" { "Hello" ; "World" } None)
      (Pair "" { "Hello" ; "World" } None) ]
  - location: 17 (just consumed gas: 0.010)
    [ (Pair { "Hello" ; "World" } None)
      (Pair "" { "Hello" ; "World" } None) ]
  - location: 18 (just consumed gas: 0.010)
    [ { "Hello" ; "World" }
      (Pair "" { "Hello" ; "World" } None) ]
  - location: 14 (just consumed gas: 0.025)
    [ ""
      { "Hello" ; "World" }
      (Pair "" { "Hello" ; "World" } None) ]
  - location: 19 (just consumed gas: 0.115)
    [ False
      (Pair "" { "Hello" ; "World" } None) ]
  - location: 20 (just consumed gas: 0.010)
    [ (Some False)
      (Pair "" { "Hello" ; "World" } None) ]
  - location: 21 (just consumed gas: 0)
    [ (Pair "" { "Hello" ; "World" } None) ]
  - location: 24 (just consumed gas: 0.010)
    [ (Pair { "Hello" ; "World" } None) ]
  - location: 25 (just consumed gas: 0.010)
    [ { "Hello" ; "World" } ]
  - location: 21 (just consumed gas: 0.025)
    [ (Some False)
      { "Hello" ; "World" } ]
  - location: 26 (just consumed gas: 0.010)
    [ { "Hello" ; "World" }
      (Some False) ]
  - location: 27 (just consumed gas: 0.010)
    [ (Pair { "Hello" ; "World" } (Some False)) ]
  - location: 28 (just consumed gas: 0.010)
    [ {}
      (Pair { "Hello" ; "World" } (Some False)) ]
  - location: 30 (just consumed gas: 0.010)
    [ (Pair {} { "Hello" ; "World" } (Some False)) ]

