
./octez-client --protocol PtNairobi9MxcBmKF7avFwkUohUu9KuxHt3w9cBmJ7ULqPD7cY5 --mode mockup --no-base-dir-warnings run script michelson_test_scripts/opcodes/or.tz on storage None and input '(Pair True True)' --level 1 --trace-stack
storage
  (Some True)
emitted operations
  
big_map diff
  
trace
  - location: 10 (just consumed gas: 8.115)
    [ (Pair (Pair True True) None) ]
  - location: 10 (just consumed gas: 0.010)
    [ (Pair True True) ]
  - location: 11 (just consumed gas: 0.010)
    [ (Pair True True)
      (Pair True True) ]
  - location: 12 (just consumed gas: 0.010)
    [ True
      (Pair True True) ]
  - location: 13 (just consumed gas: 0.010)
    [ (Pair True True)
      True ]
  - location: 14 (just consumed gas: 0.010)
    [ True
      True ]
  - location: 15 (just consumed gas: 0.010)
    [ True ]
  - location: 16 (just consumed gas: 0.010)
    [ (Some True) ]
  - location: 17 (just consumed gas: 0.010)
    [ {}
      (Some True) ]
  - location: 19 (just consumed gas: 0.010)
    [ (Pair {} (Some True)) ]

