
./octez-client --protocol PtNairobi9MxcBmKF7avFwkUohUu9KuxHt3w9cBmJ7ULqPD7cY5 --mode mockup --no-base-dir-warnings run script michelson_test_scripts/opcodes/bls12_381_fr_z_int.tz on storage 0x0100000000000000000000000000000000000000000000000000000000000000 and input -42 --level 1 --trace-stack
storage
  0xd7fffffffefffffffe5bfeff02a4bd5305d8a10908d83933487d9d2953a7ed73
emitted operations
  
big_map diff
  
trace
  - location: 7 (just consumed gas: 4.387)
    [ (Pair -42 0x0100000000000000000000000000000000000000000000000000000000000000) ]
  - location: 7 (just consumed gas: 0.010)
    [ -42
      0x0100000000000000000000000000000000000000000000000000000000000000 ]
  - location: 8 (just consumed gas: 0.266)
    [ 0xd7fffffffefffffffe5bfeff02a4bd5305d8a10908d83933487d9d2953a7ed73 ]
  - location: 9 (just consumed gas: 0.010)
    [ {}
      0xd7fffffffefffffffe5bfeff02a4bd5305d8a10908d83933487d9d2953a7ed73 ]
  - location: 11 (just consumed gas: 0.010)
    [ (Pair {} 0xd7fffffffefffffffe5bfeff02a4bd5305d8a10908d83933487d9d2953a7ed73) ]

