
./octez-client --protocol PtNairobi9MxcBmKF7avFwkUohUu9KuxHt3w9cBmJ7ULqPD7cY5 --mode mockup --no-base-dir-warnings run script michelson_test_scripts/opcodes/exec_concat.tz on storage '"?"' and input '""' --level 1 --trace-stack
storage
  "_abc"
emitted operations
  
big_map diff
  
trace
  - location: 7 (just consumed gas: 10.901)
    [ (Pair "" "?") ]
  - location: 7 (just consumed gas: 0.010)
    [ "" ]
  - location: 8 (just consumed gas: 0.010)
    [ { PUSH string "_abc" ; NIL string ; SWAP ; CONS ; SWAP ; CONS ; CONCAT }
      "" ]
  - location: 22 (just consumed gas: 0.010)
    [ ""
      { PUSH string "_abc" ; NIL string ; SWAP ; CONS ; SWAP ; CONS ; CONCAT } ]
  - location: 12 (just consumed gas: 0.010)
    [ "_abc"
      "" ]
  - location: 15 (just consumed gas: 0.010)
    [ {}
      "_abc"
      "" ]
  - location: 17 (just consumed gas: 0.010)
    [ "_abc"
      {}
      "" ]
  - location: 18 (just consumed gas: 0.010)
    [ { "_abc" }
      "" ]
  - location: 19 (just consumed gas: 0.010)
    [ ""
      { "_abc" } ]
  - location: 20 (just consumed gas: 0.010)
    [ { "" ; "_abc" } ]
  - location: 21 (just consumed gas: 0.122)
    [ "_abc" ]
  - location: 23 (just consumed gas: 0.025)
    [ "_abc" ]
  - location: 24 (just consumed gas: 0.010)
    [ {}
      "_abc" ]
  - location: 26 (just consumed gas: 0.010)
    [ (Pair {} "_abc") ]

