
./octez-client --protocol PtNairobi9MxcBmKF7avFwkUohUu9KuxHt3w9cBmJ7ULqPD7cY5 --mode mockup --no-base-dir-warnings run script michelson_test_scripts/opcodes/neg.tz on storage 0 and input '(Right 2)' --level 1 --trace-stack
storage
  -2
emitted operations
  
big_map diff
  
trace
  - location: 9 (just consumed gas: 6.169)
    [ (Pair (Right 2) 0) ]
  - location: 9 (just consumed gas: 0.010)
    [ (Right 2) ]
  - location: 10 (just consumed gas: 0)
    [ 2 ]
  - location: 14 (just consumed gas: 0.025)
    [ -2 ]
  - location: 10 (just consumed gas: 0.015)
    [ -2 ]
  - location: 15 (just consumed gas: 0.010)
    [ {}
      -2 ]
  - location: 17 (just consumed gas: 0.010)
    [ (Pair {} -2) ]

