
./octez-client --wait none originate smart rollup from bootstrap1 of kind arith of type string with kernel  --burn-cap 9999999
Node is bootstrapped.
Estimated gas: 1920.157 units (will add 100 for safety)
Estimated storage: 6552 bytes added (will add 20 for safety)
Operation successfully injected in the node.
Operation hash is '[OPERATION_HASH]'
NOT waiting for the operation to be included.
Use command
  octez-client wait for [OPERATION_HASH] to be included --confirmations 1 --branch [BLOCK_HASH]
and/or an external block explorer to make sure that it has been included.
This sequence of operations was run:
  Manager signed operations:
    From: [PUBLIC_KEY_HASH]
    Fee to the baker: ꜩ0.000551
    Expected counter: 1
    Gas limit: 2021
    Storage limit: 6572 bytes
    Balance updates:
      [PUBLIC_KEY_HASH] ... -ꜩ0.000551
      payload fees(the block proposer) ....... +ꜩ0.000551
    Smart rollup origination:
      Kind: arith
      Parameter type: string
      Kernel Blake2B hash: '0e5751c026e543b2e8ab2eb06099daa1d1e5df47778f7787faab45cdf12fe3a8'
      This smart rollup origination was successfully applied
      Consumed gas: 1920.124
      Storage size: 6552 bytes
      Address: [SMART_ROLLUP_HASH]
      Genesis commitment hash: [SC_ROLLUP_COMMITMENT_HASH]
      Balance updates:
        [PUBLIC_KEY_HASH] ... -ꜩ1.638
        storage fees ........................... +ꜩ1.638


./octez-client --wait none publish commitment from '[PUBLIC_KEY_HASH]' for smart rollup '[SMART_ROLLUP_HASH]' with compressed state '[SC_ROLLUP_PVM_STATE_HASH]' at inbox level 12 and predecessor '[SC_ROLLUP_COMMITMENT_HASH]' and number of ticks 1
Node is bootstrapped.
Estimated gas: 6368.924 units (will add 100 for safety)
Estimated storage: no bytes added
Operation successfully injected in the node.
Operation hash is '[OPERATION_HASH]'
NOT waiting for the operation to be included.
Use command
  octez-client wait for [OPERATION_HASH] to be included --confirmations 1 --branch [BLOCK_HASH]
and/or an external block explorer to make sure that it has been included.
This sequence of operations was run:
  Manager signed operations:
    From: [PUBLIC_KEY_HASH]
    Fee to the baker: ꜩ0.000967
    Expected counter: 2
    Gas limit: 6469
    Storage limit: 0 bytes
    Balance updates:
      [PUBLIC_KEY_HASH] ... -ꜩ0.000967
      payload fees(the block proposer) ....... +ꜩ0.000967
    Smart rollup commitment publishing:
      Address: [SMART_ROLLUP_HASH]
      Commitment:
        compressed_state: [SC_ROLLUP_PVM_STATE_HASH]
        inbox_level: 12
        predecessor: [SC_ROLLUP_COMMITMENT_HASH]
        number_of_ticks: 1
      This smart rollup commitment publishing was successfully applied
      Consumed gas: 6368.858
      Hash of commit: [SC_ROLLUP_COMMITMENT_HASH]
      Commitment published at level: 14
      Balance updates:
        [PUBLIC_KEY_HASH] ...................................................... -ꜩ10000
        Frozen_bonds([PUBLIC_KEY_HASH],[SMART_ROLLUP_HASH]) ... +ꜩ10000


./octez-client --wait none publish commitment from '[PUBLIC_KEY_HASH]' for smart rollup '[SMART_ROLLUP_HASH]' with compressed state '[SC_ROLLUP_PVM_STATE_HASH]' at inbox level 12 and predecessor '[SC_ROLLUP_COMMITMENT_HASH]' and number of ticks 1
Node is bootstrapped.
Estimated gas: 6590.852 units (will add 100 for safety)
Estimated storage: no bytes added
Operation successfully injected in the node.
Operation hash is '[OPERATION_HASH]'
NOT waiting for the operation to be included.
Use command
  octez-client wait for [OPERATION_HASH] to be included --confirmations 1 --branch [BLOCK_HASH]
and/or an external block explorer to make sure that it has been included.
This sequence of operations was run:
  Manager signed operations:
    From: [PUBLIC_KEY_HASH]
    Fee to the baker: ꜩ0.00099
    Expected counter: 1
    Gas limit: 6691
    Storage limit: 0 bytes
    Balance updates:
      [PUBLIC_KEY_HASH] ... -ꜩ0.00099
      payload fees(the block proposer) ....... +ꜩ0.00099
    Smart rollup commitment publishing:
      Address: [SMART_ROLLUP_HASH]
      Commitment:
        compressed_state: [SC_ROLLUP_PVM_STATE_HASH]
        inbox_level: 12
        predecessor: [SC_ROLLUP_COMMITMENT_HASH]
        number_of_ticks: 1
      This smart rollup commitment publishing was successfully applied
      Consumed gas: 6590.786
      Hash of commit: [SC_ROLLUP_COMMITMENT_HASH]
      Commitment published at level: 14
      Balance updates:
        [PUBLIC_KEY_HASH] ...................................................... -ꜩ10000
        Frozen_bonds([PUBLIC_KEY_HASH],[SMART_ROLLUP_HASH]) ... +ꜩ10000


./octez-client --wait none cement commitment '[SC_ROLLUP_COMMITMENT_HASH]' from bootstrap1 for smart rollup '[SMART_ROLLUP_HASH]'
Node is bootstrapped.
Estimated gas: 4840.322 units (will add 100 for safety)
Estimated storage: no bytes added
Operation successfully injected in the node.
Operation hash is '[OPERATION_HASH]'
NOT waiting for the operation to be included.
Use command
  octez-client wait for [OPERATION_HASH] to be included --confirmations 1 --branch [BLOCK_HASH]
and/or an external block explorer to make sure that it has been included.
This sequence of operations was run:
  Manager signed operations:
    From: [PUBLIC_KEY_HASH]
    Fee to the baker: ꜩ0.000771
    Expected counter: 3
    Gas limit: 4941
    Storage limit: 0 bytes
    Balance updates:
      [PUBLIC_KEY_HASH] ... -ꜩ0.000771
      payload fees(the block proposer) ....... +ꜩ0.000771
    Smart rollup commitment cementing:
      Address: [SMART_ROLLUP_HASH]
      Commitment: [SC_ROLLUP_COMMITMENT_HASH]
      This smart rollup commitment cementing was successfully applied
      Consumed gas: 4840.256
      Inbox level: 12
      Commitment hash: [SC_ROLLUP_COMMITMENT_HASH]


./octez-client --wait none recover bond of '[PUBLIC_KEY_HASH]' for smart rollup '[SMART_ROLLUP_HASH]' from '[PUBLIC_KEY_HASH]' --fee 1
Node is bootstrapped.
Estimated gas: 3084.518 units (will add 100 for safety)
Estimated storage: no bytes added
Operation successfully injected in the node.
Operation hash is '[OPERATION_HASH]'
NOT waiting for the operation to be included.
Use command
  octez-client wait for [OPERATION_HASH] to be included --confirmations 1 --branch [BLOCK_HASH]
and/or an external block explorer to make sure that it has been included.
This sequence of operations was run:
  Manager signed operations:
    From: [PUBLIC_KEY_HASH]
    Fee to the baker: ꜩ1
    Expected counter: 4
    Gas limit: 3185
    Storage limit: 0 bytes
    Balance updates:
      [PUBLIC_KEY_HASH] ... -ꜩ1
      payload fees(the block proposer) ....... +ꜩ1
    Smart rollup bond retrieval:
      Address: [SMART_ROLLUP_HASH]
      Staker: [PUBLIC_KEY_HASH]
      This smart rollup bond retrieval was successfully applied
      Balance updates:
        Frozen_bonds([PUBLIC_KEY_HASH],[SMART_ROLLUP_HASH]) ... -ꜩ10000
        [PUBLIC_KEY_HASH] ...................................................... +ꜩ10000
      Consumed gas: 3084.418


./octez-client --wait none recover bond of '[PUBLIC_KEY_HASH]' for smart rollup '[SMART_ROLLUP_HASH]' from '[PUBLIC_KEY_HASH]' --fee 1
Node is bootstrapped.
Estimated gas: 3084.518 units (will add 100 for safety)
Estimated storage: no bytes added
Operation successfully injected in the node.
Operation hash is '[OPERATION_HASH]'
NOT waiting for the operation to be included.
Use command
  octez-client wait for [OPERATION_HASH] to be included --confirmations 1 --branch [BLOCK_HASH]
and/or an external block explorer to make sure that it has been included.
This sequence of operations was run:
  Manager signed operations:
    From: [PUBLIC_KEY_HASH]
    Fee to the baker: ꜩ1
    Expected counter: 5
    Gas limit: 3185
    Storage limit: 0 bytes
    Balance updates:
      [PUBLIC_KEY_HASH] ... -ꜩ1
      payload fees(the block proposer) ....... +ꜩ1
    Smart rollup bond retrieval:
      Address: [SMART_ROLLUP_HASH]
      Staker: [PUBLIC_KEY_HASH]
      This smart rollup bond retrieval was successfully applied
      Balance updates:
        Frozen_bonds([PUBLIC_KEY_HASH],[SMART_ROLLUP_HASH]) ... -ꜩ10000
        [PUBLIC_KEY_HASH] ...................................................... +ꜩ10000
      Consumed gas: 3084.418

